hw/simulator/transcript
# //  ModelSim SE 6.5c Aug 27 2009 Linux 2.6.32-431.el6.x86_64
# //
# //  Copyright 1991-2009 Mentor Graphics Corporation
# //              All Rights Reserved.
# //
# //  THIS WORK CONTAINS TRADE SECRET AND 
# //  PROPRIETARY INFORMATION WHICH IS THE PROPERTY
# //  OF MENTOR GRAPHICS CORPORATION OR ITS LICENSORS
# //  AND IS SUBJECT TO LICENSE TERMS.
# //
# vsim -L /sw/xilinx/ise_11.1i/ISE/verilog/mti_se/unisims_ver -L /sw/xilinx/ise_11.1i/ISE/verilog/mti_se/xilinxcorelib_ver -lib /nobackup/local/jonka293/work -t 1ps jpeg_top_tb glbl 
# Loading sv_std.std
# Loading /nobackup/local/jonka293/work.jpeg_top_tb
# Loading /nobackup/local/jonka293/work.wishbone
# Loading /nobackup/local/jonka293/work.jpeg_top_sv_unit
# Loading /nobackup/local/jonka293/work.jpeg_top
# Loading /nobackup/local/jonka293/work.jpeg_dma
# Loading /nobackup/local/jonka293/work.addrgen
# Loading /sw/xilinx/ise_11.1i/ISE/verilog/mti_se/unisims_ver.RAMB16_S36_S36
# Loading /nobackup/local/jonka293/work.dct
# Loading /nobackup/local/jonka293/work.q2
# Loading /nobackup/local/jonka293/work.transpose
# Loading /nobackup/local/jonka293/work.mem
# Loading /nobackup/local/jonka293/work.wishbone_tasks
# Loading /nobackup/local/jonka293/work.test_jpeg
# Loading /nobackup/local/jonka293/work.glbl
run 50 us
# Starting dma from sv
# Starting dma from sv
#  00000000,  00000018,  00000003,  00000002
# csr: 00000000, result: 00002641, i1: 0000001c, i2: 00000000, i3: a1a2a3a4
# csr: 00000000, result: 00000a51, i1: 00000030, i2: 00000000, i3: 00000000
# csr: 00000000, result: 00000365, i1: 00000000, i2: 00000000, i3: 00000000
# csr: 00000000, result: 00000365, i1: 00000000, i2: 00000000, i3: 00000000
# csr: 00000000, result: 00000365, i1: 00000000, i2: 00000000, i3: 00000000
# csr: 00000000, result: 00000365, i1: 00000000, i2: 00000000, i3: 00000000
# csr: 00000000, result: 00000365, i1: 00000000, i2: 00000000, i3: 00000000
# csr: 00000080, result: 0000036b, i1: 00000000, i2: 00000000, i3: 00000000
# csr: 00000080, result: 0000036b, i1: 00000000, i2: 00000000, i3: 00000000
# csr: 00000080, result: 0000036b, i1: 00000000, i2: 00000000, i3: 00000000
# csr: 00000080, result: 0000036b, i1: 00000000, i2: 00000000, i3: 00000000
# csr: 00000080, result: 0000036b, i1: 00000000, i2: 00000000, i3: 00000000
# csr: 00000080, result: 0000036b, i1: 00000000, i2: 00000000, i3: 00000000
# csr: 00000080, result: 0000036b, i1: 00000000, i2: 00000000, i3: 00000000
# csr: 00000080, result: 0000036b, i1: 00000000, i2: 00000000, i3: 00000000
# csr: 00000080, result: 0000036b, i1: 00000000, i2: 00000000, i3: 00000000
# csr: 00000080, result: 0000036b, i1: 00000000, i2: 00000000, i3: 00000000
# csr: 00000080, result: 0000036b, i1: 00000000, i2: 00000000, i3: 00000000
# csr: 00000080, result: 0000036b, i1: 00000000, i2: 00000000, i3: 00000000
# csr: 00000080, result: 0000036b, i1: 00000000, i2: 00000000, i3: 00000000
# csr: 00000080, result: 0000036b, i1: 00000000, i2: 00000000, i3: 00000000
# csr: 00000080, result: 0000036b, i1: 00000000, i2: 00000000, i3: 00000000
# csr: 00000080, result: 0000036b, i1: 00000000, i2: 00000000, i3: 00000000
# csr: 00000080, result: 0000036b, i1: 00000000, i2: 00000000, i3: 00000000
# csr: 00000080, result: 0000036b, i1: 00000000, i2: 00000000, i3: 00000000
# csr: 00000080, result: 0000036b, i1: 00000000, i2: 00000000, i3: 00000000
# csr: 00000080, result: 0000036b, i1: 00000000, i2: 00000000, i3: 00000000
# csr: 00000080, result: 0000036b, i1: 00000000, i2: 00000000, i3: 00000000
# csr: 00000080, result: 0000036b, i1: 00000000, i2: 00000000, i3: 00000000
# csr: 00000080, result: 0000036b, i1: 00000000, i2: 00000000, i3: 00000000
# csr: 00000080, result: 0000036b, i1: 00000000, i2: 00000000, i3: 00000000
# csr: 00000080, result: 0000036b, i1: 00000000, i2: 00000000, i3: 00000000
# csr: 00000080, result: 0000036b, i1: 00000000, i2: 00000000, i3: 00000000
# csr: 00000080, result: 0000036b, i1: 00000000, i2: 00000000, i3: 00000000
# csr: 00000080, result: 0000036b, i1: 00000000, i2: 00000000, i3: 00000000
# csr: 00000080, result: 0000036b, i1: 00000000, i2: 00000000, i3: 00000000
# csr: 00000080, result: 0000036b, i1: 00000000, i2: 00000000, i3: 00000000
# csr: 00000080, result: 0000036b, i1: 00000000, i2: 00000000, i3: 00000000
# csr: 00000080, result: 0000036b, i1: 00000000, i2: 00000000, i3: 00000000
# csr: 00000080, result: 0000036b, i1: 00000000, i2: 00000000, i3: 00000000
# csr: 00000080, result: 0000036b, i1: 00000000, i2: 00000000, i3: 00000000
# csr: 00000080, result: 0000036b, i1: 00000000, i2: 00000000, i3: 00000000
# csr: 00000080, result: 0000036b, i1: 00000000, i2: 00000000, i3: 00000000
# csr: 00000080, result: 0000036b, i1: 00000000, i2: 00000000, i3: 00000000
# csr: 00000080, result: 0000036b, i1: 00000000, i2: 00000000, i3: 00000000
# csr: 00000080, result: 0000036b, i1: 00000000, i2: 00000000, i3: 00000000
# csr: 00000080, result: 0000036b, i1: 00000000, i2: 00000000, i3: 00000000
# csr: 00000080, result: 0000036b, i1: 00000000, i2: 00000000, i3: 00000000
# csr: 00000080, result: 0000036b, i1: 00000000, i2: 00000000, i3: 00000000
# csr: 00000080, result: 0000036b, i1: 00000000, i2: 00000000, i3: 00000000
# csr: 00000080, result: 0000036b, i1: 00000000, i2: 00000000, i3: 00000000
# csr: 00000080, result: 0000036b, i1: 00000000, i2: 00000000, i3: 00000000
# csr: 00000080, result: 0000036b, i1: 00000000, i2: 00000000, i3: 00000000
# csr: 00000080, result: 0000036b, i1: 00000000, i2: 00000000, i3: 00000000
# csr: 00000080, result: 0000036b, i1: 00000000, i2: 00000000, i3: 00000000
# csr: 00000080, result: 0000036b, i1: 00000000, i2: 00000000, i3: 00000000
# csr: 00000080, result: 0000036b, i1: 00000000, i2: 00000000, i3: 00000000
# csr: 00000080, result: 0000036b, i1: 00000000, i2: 00000000, i3: 00000000
# csr: 00000080, result: 0000036b, i1: 00000000, i2: 00000000, i3: 00000000
# csr: 00000080, result: 0000036b, i1: 00000000, i2: 00000000, i3: 00000000
# csr: 00000080, result: 0000036b, i1: 00000000, i2: 00000000, i3: 00000000
# csr: 00000080, result: 0000036b, i1: 00000000, i2: 00000000, i3: 00000000
# csr: 00000080, result: 0000036b, i1: 00000000, i2: 00000000, i3: 00000000
# csr: 00000080, result: 0000036b, i1: 00000000, i2: 00000000, i3: 00000000
# csr: 00000080, result: 0000036b, i1: 00000000, i2: 00000000, i3: 00000000
# csr: 00000080, result: 0000036b, i1: 00000000, i2: 00000000, i3: 00000000
# csr: 00000080, result: 0000036b, i1: 00000000, i2: 00000000, i3: 00000000
restart -f; run 60 us
# Loading sv_std.std
# Loading /nobackup/local/jonka293/work.jpeg_top_tb
# Loading /nobackup/local/jonka293/work.wishbone
# Loading /nobackup/local/jonka293/work.jpeg_top_sv_unit
# Loading /nobackup/local/jonka293/work.jpeg_top
# Loading /nobackup/local/jonka293/work.jpeg_dma
# Loading /nobackup/local/jonka293/work.addrgen
# Loading /nobackup/local/jonka293/work.dct
# Loading /nobackup/local/jonka293/work.q2
# Loading /nobackup/local/jonka293/work.transpose
# Loading /nobackup/local/jonka293/work.mem
# Loading /nobackup/local/jonka293/work.wishbone_tasks
# Loading /nobackup/local/jonka293/work.test_jpeg
# Starting dma from sv
# Starting dma from sv
#  00000000,  00000018,  00000003,  00000002
# csr: 00000000, result: 00002641, i1: 0000001c, i2: 00000000, i3: a1a2a3a4
# csr: 00000000, result: 00000a51, i1: 00000030, i2: 00000000, i3: 00000000
# csr: 00000000, result: 00000365, i1: 00000000, i2: 00000000, i3: 00000000
# csr: 00000000, result: 00000365, i1: 00000000, i2: 00000000, i3: 00000000
# csr: 00000000, result: 00000365, i1: 00000000, i2: 00000000, i3: 00000000
# csr: 00000000, result: 00000365, i1: 00000000, i2: 00000000, i3: 00000000
# csr: 00000000, result: 00000365, i1: 00000000, i2: 00000000, i3: 00000000
# csr: 00000080, result: 0000036b, i1: 00000000, i2: 00000000, i3: 00000000
# csr: 00000080, result: 0000036b, i1: 00000000, i2: 00000000, i3: 00000000
# csr: 00000080, result: 0000036b, i1: 00000000, i2: 00000000, i3: 00000000
# csr: 00000080, result: 0000036b, i1: 00000000, i2: 00000000, i3: 00000000
# csr: 00000080, result: 0000036b, i1: 00000000, i2: 00000000, i3: 00000000
# csr: 00000080, result: 0000036b, i1: 00000000, i2: 00000000, i3: 00000000
# csr: 00000080, result: 0000036b, i1: 00000000, i2: 00000000, i3: 00000000
# csr: 00000080, result: 0000036b, i1: 00000000, i2: 00000000, i3: 00000000
# csr: 00000080, result: 0000036b, i1: 00000000, i2: 00000000, i3: 00000000
# csr: 00000080, result: 0000036b, i1: 00000000, i2: 00000000, i3: 00000000
# csr: 00000080, result: 0000036b, i1: 00000000, i2: 00000000, i3: 00000000
# csr: 00000080, result: 0000036b, i1: 00000000, i2: 00000000, i3: 00000000
# csr: 00000080, result: 0000036b, i1: 00000000, i2: 00000000, i3: 00000000
# csr: 00000080, result: 0000036b, i1: 00000000, i2: 00000000, i3: 00000000
# csr: 00000080, result: 0000036b, i1: 00000000, i2: 00000000, i3: 00000000
# csr: 00000080, result: 0000036b, i1: 00000000, i2: 00000000, i3: 00000000
# csr: 00000080, result: 0000036b, i1: 00000000, i2: 00000000, i3: 00000000
# csr: 00000080, result: 0000036b, i1: 00000000, i2: 00000000, i3: 00000000
# csr: 00000080, result: 0000036b, i1: 00000000, i2: 00000000, i3: 00000000
# csr: 00000080, result: 0000036b, i1: 00000000, i2: 00000000, i3: 00000000
# csr: 00000080, result: 0000036b, i1: 00000000, i2: 00000000, i3: 00000000
# csr: 00000080, result: 0000036b, i1: 00000000, i2: 00000000, i3: 00000000
# csr: 00000080, result: 0000036b, i1: 00000000, i2: 00000000, i3: 00000000
# csr: 00000080, result: 0000036b, i1: 00000000, i2: 00000000, i3: 00000000
# csr: 00000080, result: 0000036b, i1: 00000000, i2: 00000000, i3: 00000000
# csr: 00000080, result: 0000036b, i1: 00000000, i2: 00000000, i3: 00000000
# csr: 00000080, result: 0000036b, i1: 00000000, i2: 00000000, i3: 00000000
# csr: 00000080, result: 0000036b, i1: 00000000, i2: 00000000, i3: 00000000
# csr: 00000080, result: 0000036b, i1: 00000000, i2: 00000000, i3: 00000000
# csr: 00000080, result: 0000036b, i1: 00000000, i2: 00000000, i3: 00000000
# csr: 00000080, result: 0000036b, i1: 00000000, i2: 00000000, i3: 00000000
# csr: 00000080, result: 0000036b, i1: 00000000, i2: 00000000, i3: 00000000
# csr: 00000080, result: 0000036b, i1: 00000000, i2: 00000000, i3: 00000000
# csr: 00000080, result: 0000036b, i1: 00000000, i2: 00000000, i3: 00000000
# csr: 00000080, result: 0000036b, i1: 00000000, i2: 00000000, i3: 00000000
# csr: 00000080, result: 0000036b, i1: 00000000, i2: 00000000, i3: 00000000
# csr: 00000080, result: 0000036b, i1: 00000000, i2: 00000000, i3: 00000000
# csr: 00000080, result: 0000036b, i1: 00000000, i2: 00000000, i3: 00000000
# csr: 00000080, result: 0000036b, i1: 00000000, i2: 00000000, i3: 00000000
# csr: 00000080, result: 0000036b, i1: 00000000, i2: 00000000, i3: 00000000
# csr: 00000080, result: 0000036b, i1: 00000000, i2: 00000000, i3: 00000000
# csr: 00000080, result: 0000036b, i1: 00000000, i2: 00000000, i3: 00000000
# csr: 00000080, result: 0000036b, i1: 00000000, i2: 00000000, i3: 00000000
# csr: 00000080, result: 0000036b, i1: 00000000, i2: 00000000, i3: 00000000
# csr: 00000080, result: 0000036b, i1: 00000000, i2: 00000000, i3: 00000000
# csr: 00000080, result: 0000036b, i1: 00000000, i2: 00000000, i3: 00000000
# csr: 00000080, result: 0000036b, i1: 00000000, i2: 00000000, i3: 00000000
# csr: 00000080, result: 0000036b, i1: 00000000, i2: 00000000, i3: 00000000
# csr: 00000080, result: 0000036b, i1: 00000000, i2: 00000000, i3: 00000000
# csr: 00000080, result: 0000036b, i1: 00000000, i2: 00000000, i3: 00000000
# csr: 00000080, result: 0000036b, i1: 00000000, i2: 00000000, i3: 00000000
# csr: 00000080, result: 0000036b, i1: 00000000, i2: 00000000, i3: 00000000
# csr: 00000080, result: 0000036b, i1: 00000000, i2: 00000000, i3: 00000000
# csr: 00000080, result: 0000036b, i1: 00000000, i2: 00000000, i3: 00000000
# csr: 00000080, result: 0000036b, i1: 00000000, i2: 00000000, i3: 00000000
# csr: 00000080, result: 0000036b, i1: 00000000, i2: 00000000, i3: 00000000
# csr: 00000080, result: 0000036b, i1: 00000000, i2: 00000000, i3: 00000000
# csr: 00000080, result: 0000036b, i1: 00000000, i2: 00000000, i3: 00000000
# csr: 00000080, result: 0000036b, i1: 00000000, i2: 00000000, i3: 00000000
# csr: 00000080, result: 0000036b, i1: 00000000, i2: 00000000, i3: 00000000
# csr: 00000080, result: 0000036b, i1: 00000000, i2: 00000000, i3: 00000000
# csr: 00000080, result: 0000036b, i1: 00000000, i2: 00000000, i3: 00000000
# csr: 00000080, result: 0000036b, i1: 00000000, i2: 00000000, i3: 00000000
# csr: 00000080, result: 0000036b, i1: 00000000, i2: 00000000, i3: 00000000
# csr: 00000080, result: 0000036b, i1: 00000000, i2: 00000000, i3: 00000000
# csr: 00000080, result: 0000036b, i1: 00000000, i2: 00000000, i3: 00000000
# csr: 00000080, result: 0000036b, i1: 00000000, i2: 00000000, i3: 00000000
# csr: 00000080, result: 0000036b, i1: 00000000, i2: 00000000, i3: 00000000
# csr: 00000080, result: 0000036b, i1: 00000000, i2: 00000000, i3: 00000000
# csr: 00000080, result: 0000036b, i1: 00000000, i2: 00000000, i3: 00000000
# csr: 00000080, result: 0000036b, i1: 00000000, i2: 00000000, i3: 00000000
# csr: 00000080, result: 0000036b, i1: 00000000, i2: 00000000, i3: 00000000
# csr: 00000080, result: 0000036b, i1: 00000000, i2: 00000000, i3: 00000000
# csr: 00000080, result: 0000036b, i1: 00000000, i2: 00000000, i3: 00000000
restart -f; run 60 us
# Loading sv_std.std
# Loading /nobackup/local/jonka293/work.jpeg_top_tb
# Loading /nobackup/local/jonka293/work.wishbone
# Loading /nobackup/local/jonka293/work.jpeg_top_sv_unit
# Loading /nobackup/local/jonka293/work.jpeg_top
# Loading /nobackup/local/jonka293/work.jpeg_dma
# Loading /nobackup/local/jonka293/work.addrgen
# Loading /nobackup/local/jonka293/work.dct
# Loading /nobackup/local/jonka293/work.q2
# Loading /nobackup/local/jonka293/work.transpose
# Loading /nobackup/local/jonka293/work.mem
# Loading /nobackup/local/jonka293/work.wishbone_tasks
# Loading /nobackup/local/jonka293/work.test_jpeg
# Starting dma from sv
# Starting dma from sv
#  00000000,  00000018,  00000003,  00000002
# csr: 00000000, result: 00002641, i1: 0000001c, i2: 00000000, i3: a1a2a3a4
# csr: 00000000, result: 00000a51, i1: 00000030, i2: 00000000, i3: 00000000
# csr: 00000000, result: 00000365, i1: 00000000, i2: 00000000, i3: 00000000
# csr: 00000000, result: 00000365, i1: 00000000, i2: 00000000, i3: 00000000
# csr: 00000000, result: 00000365, i1: 00000000, i2: 00000000, i3: 00000000
# csr: 00000000, result: 00000365, i1: 00000000, i2: 00000000, i3: 00000000
# csr: 00000000, result: 00000365, i1: 00000000, i2: 00000000, i3: 00000000
# csr: 00000080, result: 0000036b, i1: 00000000, i2: 00000000, i3: 00000000
# csr: 00000080, result: 0000036b, i1: 00000000, i2: 00000000, i3: 00000000
# csr: 00000080, result: 0000036b, i1: 00000000, i2: 00000000, i3: 00000000
# csr: 00000080, result: 0000036b, i1: 00000000, i2: 00000000, i3: 00000000
# csr: 00000080, result: 0000036b, i1: 00000000, i2: 00000000, i3: 00000000
# csr: 00000080, result: 0000036b, i1: 00000000, i2: 00000000, i3: 00000000
# csr: 00000080, result: 0000036b, i1: 00000000, i2: 00000000, i3: 00000000
# csr: 00000080, result: 0000036b, i1: 00000000, i2: 00000000, i3: 00000000
# csr: 00000080, result: 0000036b, i1: 00000000, i2: 00000000, i3: 00000000
# csr: 00000080, result: 0000036b, i1: 00000000, i2: 00000000, i3: 00000000
# csr: 00000080, result: 0000036b, i1: 00000000, i2: 00000000, i3: 00000000
# csr: 00000080, result: 0000036b, i1: 00000000, i2: 00000000, i3: 00000000
# csr: 00000080, result: 0000036b, i1: 00000000, i2: 00000000, i3: 00000000
# csr: 00000080, result: 0000036b, i1: 00000000, i2: 00000000, i3: 00000000
# csr: 00000080, result: 0000036b, i1: 00000000, i2: 00000000, i3: 00000000
# csr: 00000080, result: 0000036b, i1: 00000000, i2: 00000000, i3: 00000000
# csr: 00000080, result: 0000036b, i1: 00000000, i2: 00000000, i3: 00000000
# csr: 00000080, result: 0000036b, i1: 00000000, i2: 00000000, i3: 00000000
# csr: 00000080, result: 0000036b, i1: 00000000, i2: 00000000, i3: 00000000
# csr: 00000080, result: 0000036b, i1: 00000000, i2: 00000000, i3: 00000000
# csr: 00000080, result: 0000036b, i1: 00000000, i2: 00000000, i3: 00000000
# csr: 00000080, result: 0000036b, i1: 00000000, i2: 00000000, i3: 00000000
# csr: 00000080, result: 0000036b, i1: 00000000, i2: 00000000, i3: 00000000
# csr: 00000080, result: 0000036b, i1: 00000000, i2: 00000000, i3: 00000000
# csr: 00000080, result: 0000036b, i1: 00000000, i2: 00000000, i3: 00000000
# csr: 00000080, result: 0000036b, i1: 00000000, i2: 00000000, i3: 00000000
# csr: 00000080, result: 0000036b, i1: 00000000, i2: 00000000, i3: 00000000
# csr: 00000080, result: 0000036b, i1: 00000000, i2: 00000000, i3: 00000000
# csr: 00000080, result: 0000036b, i1: 00000000, i2: 00000000, i3: 00000000
# csr: 00000080, result: 0000036b, i1: 00000000, i2: 00000000, i3: 00000000
# csr: 00000080, result: 0000036b, i1: 00000000, i2: 00000000, i3: 00000000
# csr: 00000080, result: 0000036b, i1: 00000000, i2: 00000000, i3: 00000000
# csr: 00000080, result: 0000036b, i1: 00000000, i2: 00000000, i3: 00000000
# csr: 00000080, result: 0000036b, i1: 00000000, i2: 00000000, i3: 00000000
# csr: 00000080, result: 0000036b, i1: 00000000, i2: 00000000, i3: 00000000
# csr: 00000080, result: 0000036b, i1: 00000000, i2: 00000000, i3: 00000000
# csr: 00000080, result: 0000036b, i1: 00000000, i2: 00000000, i3: 00000000
# csr: 00000080, result: 0000036b, i1: 00000000, i2: 00000000, i3: 00000000
# csr: 00000080, result: 0000036b, i1: 00000000, i2: 00000000, i3: 00000000
# csr: 00000080, result: 0000036b, i1: 00000000, i2: 00000000, i3: 00000000
# csr: 00000080, result: 0000036b, i1: 00000000, i2: 00000000, i3: 00000000
# csr: 00000080, result: 0000036b, i1: 00000000, i2: 00000000, i3: 00000000
# csr: 00000080, result: 0000036b, i1: 00000000, i2: 00000000, i3: 00000000
# csr: 00000080, result: 0000036b, i1: 00000000, i2: 00000000, i3: 00000000
# csr: 00000080, result: 0000036b, i1: 00000000, i2: 00000000, i3: 00000000
# csr: 00000080, result: 0000036b, i1: 00000000, i2: 00000000, i3: 00000000
# csr: 00000080, result: 0000036b, i1: 00000000, i2: 00000000, i3: 00000000
# csr: 00000080, result: 0000036b, i1: 00000000, i2: 00000000, i3: 00000000
# csr: 00000080, result: 0000036b, i1: 00000000, i2: 00000000, i3: 00000000
# csr: 00000080, result: 0000036b, i1: 00000000, i2: 00000000, i3: 00000000
# csr: 00000080, result: 0000036b, i1: 00000000, i2: 00000000, i3: 00000000
# csr: 00000080, result: 0000036b, i1: 00000000, i2: 00000000, i3: 00000000
# csr: 00000080, result: 0000036b, i1: 00000000, i2: 00000000, i3: 00000000
# csr: 00000080, result: 0000036b, i1: 00000000, i2: 00000000, i3: 00000000
# csr: 00000080, result: 0000036b, i1: 00000000, i2: 00000000, i3: 00000000
# csr: 00000080, result: 0000036b, i1: 00000000, i2: 00000000, i3: 00000000
# csr: 00000080, result: 0000036b, i1: 00000000, i2: 00000000, i3: 00000000
# csr: 00000080, result: 0000036b, i1: 00000000, i2: 00000000, i3: 00000000
# csr: 00000080, result: 0000036b, i1: 00000000, i2: 00000000, i3: 00000000
# csr: 00000080, result: 0000036b, i1: 00000000, i2: 00000000, i3: 00000000
# csr: 00000080, result: 0000036b, i1: 00000000, i2: 00000000, i3: 00000000
# csr: 00000080, result: 0000036b, i1: 00000000, i2: 00000000, i3: 00000000
# csr: 00000080, result: 0000036b, i1: 00000000, i2: 00000000, i3: 00000000
# csr: 00000080, result: 0000036b, i1: 00000000, i2: 00000000, i3: 00000000
# csr: 00000080, result: 0000036b, i1: 00000000, i2: 00000000, i3: 00000000
# csr: 00000080, result: 0000036b, i1: 00000000, i2: 00000000, i3: 00000000
# csr: 00000080, result: 0000036b, i1: 00000000, i2: 00000000, i3: 00000000
# csr: 00000080, result: 0000036b, i1: 00000000, i2: 00000000, i3: 00000000
# csr: 00000080, result: 0000036b, i1: 00000000, i2: 00000000, i3: 00000000
# csr: 00000080, result: 0000036b, i1: 00000000, i2: 00000000, i3: 00000000
# csr: 00000080, result: 0000036b, i1: 00000000, i2: 00000000, i3: 00000000
# csr: 00000080, result: 0000036b, i1: 00000000, i2: 00000000, i3: 00000000
# csr: 00000080, result: 0000036b, i1: 00000000, i2: 00000000, i3: 00000000
# csr: 00000080, result: 0000036b, i1: 00000000, i2: 00000000, i3: 00000000
make simfiles;restart -f;run 50 us
# Loading sv_std.std
# Loading /nobackup/local/jonka293/work.jpeg_top_tb
# Loading /nobackup/local/jonka293/work.wishbone
# Loading /nobackup/local/jonka293/work.jpeg_top_sv_unit
# Loading /nobackup/local/jonka293/work.jpeg_top
# Loading /nobackup/local/jonka293/work.jpeg_dma
# Loading /nobackup/local/jonka293/work.addrgen
# Loading /nobackup/local/jonka293/work.dct
# Loading /nobackup/local/jonka293/work.q2
# Loading /nobackup/local/jonka293/work.transpose
# Loading /nobackup/local/jonka293/work.mem
# Loading /nobackup/local/jonka293/work.wishbone_tasks
# Loading /nobackup/local/jonka293/work.test_jpeg
# Loading /nobackup/local/jonka293/work.glbl
# Starting dma from sv
# Starting dma from sv
#  00000000,  00000018,  00000003,  00000002
# csr: 00002651, result: 00000000, i1: 00000018, i2: 00000000, i3: 00000000
# csr: 00003e41, result: 00000000, i1: 00000028, i2: 00000000, i3: 00000000
# csr: 00001651, result: 00000000, i1: 0000003c, i2: bdbebfc0, i3: 00000000
# csr: 00000365, result: 00000000, i1: 00000000, i2: 00000000, i3: 00000000
# csr: 00000365, result: 00000000, i1: 00000000, i2: 00000000, i3: 00000000
# csr: 00000365, result: 00000000, i1: 00000000, i2: 00000000, i3: 00000000
# csr: 00000365, result: 00000000, i1: 00000000, i2: 00000000, i3: 00000000
# csr: 00000365, result: 00000000, i1: 00000000, i2: 00000000, i3: 00000000
# csr: 0000036b, result: 00000000, i1: 00000000, i2: 00000000, i3: 00000000
#   -96   -24     0    -2     0     0     0     0 
#    -3     0     0     0     0     0     0     0 
#     0     0     0     0     0     0     0     0 
#     0     0     0     0     0     0     0     0 
#     0     0     0     0     0     0     0     0 
#     0     0     0     0     0     0     0     0 
#     0     0     0     0     0     0     0     0 
#     0     0     0     0     0     0     0     0 
#   -96   -24     0    -2     0     0     0     0 
#    -3     0     0     0     0     0     0     0 
#     0     0     0     0     0     0     0     0 
#     0     0     0     0     0     0     0     0 
#     0     0     0     0     0     0     0     0 
#     0     0     0     0     0     0     0     0 
#     0     0     0     0     0     0     0     0 
#     0     0     0     0     0     0     0     0 
make simfiles;restart -f;run 50 us
# Loading sv_std.std
# Loading /nobackup/local/jonka293/work.jpeg_top_tb
# Loading /nobackup/local/jonka293/work.wishbone
# Loading /nobackup/local/jonka293/work.jpeg_top_sv_unit
# Loading /nobackup/local/jonka293/work.jpeg_top
# Loading /nobackup/local/jonka293/work.jpeg_dma
# Loading /nobackup/local/jonka293/work.addrgen
# Loading /nobackup/local/jonka293/work.dct
# Loading /nobackup/local/jonka293/work.q2
# Loading /nobackup/local/jonka293/work.transpose
# Loading /nobackup/local/jonka293/work.mem
# Loading /nobackup/local/jonka293/work.wishbone_tasks
# Loading /nobackup/local/jonka293/work.test_jpeg
# Loading /nobackup/local/jonka293/work.glbl
# Starting dma from sv
# Starting dma from sv
#  00000000,  00000018,  00000003,  00000002
# csr: 00002651, result: 00000000, i1: 00000018, i2: 00000000, i3: 00000000
# csr: 00003e41, result: 00000000, i1: 00000028, i2: 00000000, i3: 00000000
# csr: 00001651, result: 00000000, i1: 0000003c, i2: bdbebfc0, i3: 00000000
# csr: 00000365, result: 00000000, i1: 00000000, i2: 00000000, i3: 00000000
# csr: 00000365, result: 00000000, i1: 00000000, i2: 00000000, i3: 00000000
# csr: 00000365, result: 00000000, i1: 00000000, i2: 00000000, i3: 00000000
# csr: 00000365, result: 00000000, i1: 00000000, i2: 00000000, i3: 00000000
# csr: 00000365, result: 00000000, i1: 00000000, i2: 00000000, i3: 00000000
# csr: 0000036b, result: 00000000, i1: 00000000, i2: 00000000, i3: 00000000
#   -96   -24     0    -2     0     0     0     0 
#    -3     0     0     0     0     0     0     0 
#     0     0     0     0     0     0     0     0 
#     0     0     0     0     0     0     0     0 
#     0     0     0     0     0     0     0     0 
#     0     0     0     0     0     0     0     0 
#     0     0     0     0     0     0     0     0 
#     0     0     0     0     0     0     0     0 
#   -96   -24     0    -2     0     0     0     0 
#    -3     0     0     0     0     0     0     0 
#     0     0     0     0     0     0     0     0 
#     0     0     0     0     0     0     0     0 
#     0     0     0     0     0     0     0     0 
#     0     0     0     0     0     0     0     0 
#     0     0     0     0     0     0     0     0 
#     0     0     0     0     0     0     0     0 
make simfiles;restart -f;run 50 us
# Loading sv_std.std
# Loading /nobackup/local/jonka293/work.jpeg_top_tb
# Loading /nobackup/local/jonka293/work.wishbone
# Loading /nobackup/local/jonka293/work.jpeg_top_sv_unit
# Loading /nobackup/local/jonka293/work.jpeg_top
# Loading /nobackup/local/jonka293/work.jpeg_dma
# Loading /nobackup/local/jonka293/work.addrgen
# Loading /nobackup/local/jonka293/work.dct
# Loading /nobackup/local/jonka293/work.q2
# Loading /nobackup/local/jonka293/work.transpose
# Loading /nobackup/local/jonka293/work.mem
# Loading /nobackup/local/jonka293/work.wishbone_tasks
# Loading /nobackup/local/jonka293/work.test_jpeg
# Loading /nobackup/local/jonka293/work.glbl
# Starting dma from sv
# Starting dma from sv
#  00000000,  00000018,  00000003,  00000002
# csr: 00002651, result: 00000000, i1: 00000018, i2: 00000000, i3: 00000000
# csr: 00003e41, result: 00000000, i1: 00000028, i2: 00000000, i3: 00000000
# csr: 00001651, result: 00000000, i1: 0000003c, i2: bdbebfc0, i3: 00000000
# csr: 00000365, result: 00000000, i1: 00000000, i2: 00000000, i3: 00000000
# csr: 00000365, result: 00000000, i1: 00000000, i2: 00000000, i3: 00000000
# csr: 00000365, result: 00000000, i1: 00000000, i2: 00000000, i3: 00000000
# csr: 00000365, result: 00000000, i1: 00000000, i2: 00000000, i3: 00000000
# csr: 00000365, result: 00000000, i1: 00000000, i2: 00000000, i3: 00000000
# csr: 0000036b, result: 00000000, i1: 00000000, i2: 00000000, i3: 00000000
#   -96   -24     0    -2     0     0     0     0 
#    -3     0     0     0     0     0     0     0 
#     0     0     0     0     0     0     0     0 
#     0     0     0     0     0     0     0     0 
#     0     0     0     0     0     0     0     0 
#     0     0     0     0     0     0     0     0 
#     0     0     0     0     0     0     0     0 
#     0     0     0     0     0     0     0     0 
#   -96   -24     0    -2     0     0     0     0 
#    -3     0     0     0     0     0     0     0 
#     0     0     0     0     0     0     0     0 
#     0     0     0     0     0     0     0     0 
#     0     0     0     0     0     0     0     0 
#     0     0     0     0     0     0     0     0 
#     0     0     0     0     0     0     0     0 
#     0     0     0     0     0     0     0     0 
make simfiles;restart -f;run 50 us
# Loading sv_std.std
# Loading /nobackup/local/jonka293/work.jpeg_top_tb
# Loading /nobackup/local/jonka293/work.wishbone
# Loading /nobackup/local/jonka293/work.jpeg_top_sv_unit
# Loading /nobackup/local/jonka293/work.jpeg_top
# Loading /nobackup/local/jonka293/work.jpeg_dma
# Loading /nobackup/local/jonka293/work.addrgen
# Loading /nobackup/local/jonka293/work.dct
# Loading /nobackup/local/jonka293/work.q2
# Loading /nobackup/local/jonka293/work.transpose
# Loading /nobackup/local/jonka293/work.mem
# Loading /nobackup/local/jonka293/work.wishbone_tasks
# Loading /nobackup/local/jonka293/work.test_jpeg
# Loading /nobackup/local/jonka293/work.glbl
# Starting dma from sv
# Starting dma from sv
#  00000000,  00000018,  00000003,  00000002
# csr: 00002651, result: 00000000, i1: 00000018, i2: 00000081, i3: 00000081
# csr: 00003e41, result: 00000000, i1: 00000028, i2: 00000081, i3: 00000081
# csr: 00001651, result: 00000000, i1: 0000003c, i2: bdbebfc0, i3: 00000081
# csr: 00000365, result: 00000000, i1: 00000000, i2: 00000081, i3: 00000081
# csr: 00000365, result: 00000000, i1: 00000000, i2: 00000081, i3: 00000081
# csr: 00000365, result: 00000000, i1: 00000000, i2: 00000081, i3: 00000081
# csr: 00000365, result: 00000000, i1: 00000000, i2: 00000081, i3: 00000081
# csr: 00000365, result: 00000000, i1: 00000000, i2: 00000081, i3: 00000081
# csr: 0000036b, result: 00000000, i1: 00000000, i2: 00000081, i3: 00000081
#   -96   -24     0    -2     0     0     0     0 
#    -3     0     0     0     0     0     0     0 
#     0     0     0     0     0     0     0     0 
#     0     0     0     0     0     0     0     0 
#     0     0     0     0     0     0     0     0 
